abstract-print,,farfelu,
animal,,chamarré,
baroque,,impérial,
basic,familier,,
beach,paresseux,,
bird-print,chantant,,
boho,bohème,détendu,
botanical-print,cultivé,,
camouflage,punk,militaire,
cargo,pragmatique,terre-à-terre,
chic,chic,,
chiffon,chiffonné,abîmé,
circle,galbé,,
civil,passe-partout,,
colorblock,éclatant,,
cotton,délicat,sensible,doux
cozy,décontracté,,
crochet,introverti,,
cute,mignon,doux,
denim,cool,,
dotted,,,à-pois
elegant,élégant,,
everyday,simple,,
fancy,estimable,précieux,
faux-fur,bestial,,
faux-leather,libre,,
faux-suede,agreste,,
feather,libre,,
floral,gai,,
fur,bestial,,
glitter,étincelant,brillant,
graphic,intéressé,,
grid-print,quadrillé,,
grunge,accro,,
knotted,respectueux,,
leaf-print,écolo,,
leather,futuriste,,
leopard-print,féroce,,
linen,soucieux,,
linen-blend,attentionné,,
logo,fier,,
luxe,gracieux,,
marble-print,noble,,
medallion-print,nostalgique,,
mesh,impliqué,,
metallic,froid,avant-gardiste,
mixed-print,indécis,,
multi-stripe,echantillonné,,
neon,extraverti,,
neoprene,couvert,,
nets,sportif,,
netted,coquin,,
nylon,convenant,,
oil,protégé,,
ombre,pictural,,
organza,occasionnel,,
ornate-print,ornementé,,
paisley-print,spirituel,,
palm-print,tranquille,,
party,débauché,arsouille,
patched,patché,,
pattern,osé,,
pleated,inattendu,,
print,décoré,,
relaxed,détendu,,
retro,rétro,,
safari,audacieux,,
sateen,charmeur,,
satin,sensuel,,
sheer,transparent,,
smart,intelligent,,
soft,gentil,,
solid,solide,fort,
sophisticated,sophistiqué,,
sparkling,pétillant,,
sporty,sportif,,
springs,léger,,
square,carré,droit,
star,niais,tête-en-l'air,
strap,tenace,,
stretch,étiré,,
striped,droit,,
suede,agreste,,
summer,ensoleillé,,
sweet,doux,sucré,
textured,intéressant,,
thermal,chaleureux,,
tie-dye,contestataire,,
training,prêt,,
triangle,triangulaire,,
tropical,euphorique,,
tweed,académique,sérieux,
utility,attentif,,
velvet,passif-agressif,,
weekend,reposé,,
workout,costaud,protecteur,
woven,manigancé,,
zigzag,trivial,,
